Division,WeightClassKg,Place,Name,Team,BodyweightKg,Best3SquatKg,Best3BenchKg,Best3DeadliftKg,TotalKg,Equipment,Event,Sex,BirthDate
Girls,47.85,1,Lacey Tackett,Orangefield,47.17,127.01,68.04,127.01,322.05,Single-ply,SBD,F,
Girls,47.85,2,Linsey Tackett,Orangefield,45.81,108.86,61.23,111.13,281.23,Single-ply,SBD,F,
Girls,51.94,1,Skyazia Glass,West Orange-Stark,48.53,52.16,22.68,61.23,136.08,Single-ply,SBD,F,
Girls,51.94,DQ,DaSasha Janice,West Orange-Stark,50.35,,,,,Single-ply,SBD,F,
Girls,56.02,1,Annie Bebee,Silsbee,54.61,108.86,49.9,122.47,281.23,Single-ply,SBD,F,
Girls,56.02,2,Jayden Miller,West Orange-Stark,53.52,61.23,27.22,92.99,181.44,Single-ply,SBD,F,
Girls,56.02,DQ,Makayla Garcia,Orangefield,53.98,36.29,,,,Single-ply,SBD,F,
Girls,60.1,1,Azia Walker,West Orange-Stark,58.06,65.77,34.02,104.33,204.12,Single-ply,SBD,F,
Girls,60.1,2,Alajha Morris,West Orange-Stark,58.97,70.31,31.75,92.99,195.04,Single-ply,SBD,F,
Girls,60.1,DQ,Madison White,Silsbee,58.15,,,,,Single-ply,SBD,F,
Girls,67.36,1,T'era Garrett,West Orange-Stark,60.78,83.91,34.02,88.45,206.38,Single-ply,SBD,F,
Girls,67.36,DQ,Angel Wedgeworth,Orangefield,61.23,54.43,,,,Single-ply,SBD,F,
Girls,75.07,1,Kamille Queen,West Orange-Stark,68.04,92.99,38.56,124.74,256.28,Single-ply,SBD,F,
Girls,75.07,2,Kaydence Tatom,Silsbee,73.66,90.72,52.16,90.72,233.6,Single-ply,SBD,F,
Girls,75.07,3,D'Lanie Spoonemore,Silsbee,73.39,40.82,29.48,56.7,127.01,Single-ply,SBD,F,
Girls,82.33,1,Aris Batts,West Orange-Stark,75.75,113.4,43.09,131.54,288.03,Single-ply,SBD,F,
Girls,82.33,2,Jasonlyn Comier,Silsbee,76.11,97.52,61.23,102.06,260.82,Single-ply,SBD,F,
Girls,82.33,3,Katie Hogg,West Orange-Stark,75.3,81.65,38.56,92.99,213.19,Single-ply,SBD,F,
Girls,82.33,4,Abbigail Hudnall,Orange Little Cypress-Mauriceville,77.11,47.63,34.02,79.38,161.03,Single-ply,SBD,F,
Girls,90.04,1,Kailee Dotson,Silsbee,88.09,79.38,38.56,70.31,188.24,Single-ply,SBD,F,
Girls,90.04,2,Jaida Smith,Orangefield,87.09,36.29,36.29,72.57,145.15,Single-ply,SBD,F,
Girls,90.04,DQ,Jenna Comeaux,Orange Little Cypress-Mauriceville,84.37,,,,,Single-ply,SBD,F,
Girls,90.04,DQ,Jairyn Leger,Orange Little Cypress-Mauriceville,85.73,86.18,,,,Single-ply,SBD,F,
Girls,100.02,1,Lyla Boudreaux,Orangefield,92.99,52.16,27.22,70.31,149.69,Single-ply,SBD,F,
Girls,117.71,1,Jasmine Strother,Silsbee,113.31,97.52,63.5,102.06,263.08,Single-ply,SBD,F,
Girls,117.71,2,Grace Sullivan,Orangefield,115.67,92.99,68.04,79.38,240.4,Single-ply,SBD,F,
Girls,117.71,3,Hannah Sullivan,Orangefield,109.32,52.16,38.56,95.25,185.97,Single-ply,SBD,F,
Girls,117.71+,1,Nortazia McGhee,West Orange-Stark,126.1,92.99,47.63,102.06,242.67,Single-ply,SBD,F,
Girls,117.71+,2,India Milton,Silsbee,172.09,56.7,56.7,102.06,215.46,Single-ply,SBD,F,
