Division,WeightClassKg,Place,Name,Team,BodyweightKg,Best3SquatKg,Best3BenchKg,Best3DeadliftKg,TotalKg,Equipment,Event,Sex,BirthDate
Boys,51.71,1,Diego Malm,Magnolia,51.48,117.93,70.31,124.74,312.98,Single-ply,SBD,M,
Boys,51.71,2,Kyle Sanchez,Boling,45.59,104.33,49.9,108.86,263.08,Single-ply,SBD,M,
Boys,51.71,3,Ashtin Carlock,Conroe Grand Oaks,51.07,88.45,68.04,106.59,263.08,Single-ply,SBD,M,
Boys,51.71,4,Daniel Shipula,Conroe Caney Creek,51.53,90.72,58.97,102.06,251.74,Single-ply,SBD,M,
Boys,51.71,5,Daniel Burgess,Conroe Woodlands College Park,45.45,52.16,34.02,77.11,163.29,Single-ply,SBD,M,
Boys,51.71,DQ,Juan Couchenour,Conroe Grand Oaks,50.89,65.77,,,,Single-ply,SBD,M,
Boys,51.71,DQ,James Arrington,Boling,42.64,,,,,Single-ply,SBD,M,
Boys,55.79,1,Alec Ohnheiser,Conroe,55.34,142.88,92.99,136.08,371.95,Single-ply,SBD,M,
Boys,55.79,2,Emmanuel Villagomez,Conroe Caney Creek,54.61,122.47,79.38,131.54,333.39,Single-ply,SBD,M,
Boys,55.79,3,Matt Provost,Conroe The Woodlands,54.57,129.27,54.43,136.08,319.78,Single-ply,SBD,M,
Boys,55.79,4,Emmanuel Batongmalaki,Baytown Lee,51.8,106.59,65.77,142.88,315.25,Single-ply,SBD,M,
Boys,55.79,5,Nate Provost,Conroe The Woodlands,54.25,115.67,56.7,142.88,315.25,Single-ply,SBD,M,
Boys,55.79,6,Hank Hewgley,Conroe The Woodlands,54.98,120.2,74.84,117.93,312.98,Single-ply,SBD,M,
Boys,55.79,7,Thineesha Weerasinghe,Conroe Grand Oaks,55.7,124.74,61.23,117.93,303.91,Single-ply,SBD,M,
Boys,55.79,8,Marcos Bretado,Baytown Lee,52.48,92.99,65.77,129.27,288.03,Single-ply,SBD,M,
Boys,55.79,9,Lukas Alvarez,Conroe The Woodlands,54.07,95.25,52.16,124.74,272.16,Single-ply,SBD,M,
Boys,59.87,1,Jare Ali,Conroe The Woodlands,58.65,163.29,92.99,183.7,439.98,Single-ply,SBD,M,
Boys,59.87,2,Blaise Ohnheiser,Conroe,59.87,161.03,88.45,174.63,424.11,Single-ply,SBD,M,
Boys,59.87,3,Ryan Johnson,Conroe Grand Oaks,59.24,151.95,90.72,167.83,410.5,Single-ply,SBD,M,
Boys,59.87,4,Cameron Yale,Magnolia,59.42,165.56,86.18,158.76,410.5,Single-ply,SBD,M,
Boys,59.87,5,Adrian Valdez,Cleveland Tarkington,59.87,151.95,88.45,151.95,392.36,Single-ply,SBD,M,
Boys,59.87,6,Rudy Becerra,Boling,56.29,156.49,86.18,133.81,376.48,Single-ply,SBD,M,
Boys,59.87,7,Ryan Tatom,Huffman Hargrave,59.47,147.42,88.45,136.08,371.95,Single-ply,SBD,M,
Boys,59.87,8,Joseph Tellez,Magnolia,58.06,138.35,81.65,142.88,362.87,Single-ply,SBD,M,
Boys,59.87,9,Noah McClatchy,Conroe Grand Oaks,57.56,129.27,79.38,136.08,344.73,Single-ply,SBD,M,
Boys,59.87,10,Alerique Medrano,Boling,57.11,131.54,68.04,136.08,335.66,Single-ply,SBD,M,
Boys,59.87,11,Devin Salas,Conroe Grand Oaks,58.94,104.33,61.23,136.08,301.64,Single-ply,SBD,M,
Boys,59.87,12,Mitchell Willis,Galveston Ball,58.01,102.06,56.7,122.47,281.23,Single-ply,SBD,M,
Boys,59.87,DQ,Carlos Perez #7,Conroe Grand Oaks,59.87,,,,,Single-ply,SBD,M,
Boys,67.13,1,Kevin Manning,Boling,63.46,240.4,124.74,195.04,560.19,Single-ply,SBD,M,
Boys,67.13,2,Robert Ellis,Galveston Ball,65.63,183.7,111.13,192.78,487.61,Single-ply,SBD,M,
Boys,67.13,3,Ahmev Ahmed,Fort Bend Kempner,64.5,167.83,104.33,183.7,455.86,Single-ply,SBD,M,
Boys,67.13,4,Carlos Olmedo,Boling,67.13,179.17,92.99,156.49,428.64,Single-ply,SBD,M,
Boys,67.13,5,Jesus Loya,Magnolia,65.77,165.56,86.18,174.63,426.38,Single-ply,SBD,M,
Boys,67.13,6,Jonathan Martin,Beaumont United,65.91,156.49,88.45,181.44,426.38,Single-ply,SBD,M,
Boys,67.13,7,Joseph Stokes,Montgomery Lake Creek,63.28,140.61,90.72,192.78,424.11,Single-ply,SBD,M,
Boys,67.13,8,Sean Zver,Conroe Grand Oaks,64.73,149.69,97.52,174.63,421.84,Single-ply,SBD,M,
Boys,67.13,9,Tyler Higginbotham,Conroe The Woodlands,66.54,151.95,95.25,151.95,399.16,Single-ply,SBD,M,
Boys,67.13,10,Joseph Mezua,Conroe Caney Creek,62.55,136.08,102.06,142.88,381.02,Single-ply,SBD,M,
Boys,67.13,11,Austin Winder,Cleveland Tarkington,66.32,156.49,86.18,136.08,378.75,Single-ply,SBD,M,
Boys,67.13,12,Logan Stratiou,Boling,65,147.42,83.91,140.61,371.95,Single-ply,SBD,M,
Boys,67.13,13,Alex Turner #1,Conroe The Woodlands,66.04,131.54,83.91,154.22,369.68,Single-ply,SBD,M,
Boys,67.13,14,Bryce Trielle,Montgomery,65.82,138.35,86.18,138.35,362.87,Single-ply,SBD,M,
Boys,67.13,15,Drew Griffin,Conroe Grand Oaks,65.59,142.88,65.77,142.88,351.53,Single-ply,SBD,M,
Boys,67.13,16,Rogelio Barrera,Conroe,62.82,124.74,79.38,145.15,349.27,Single-ply,SBD,M,
Boys,67.13,17,James Kennedy,Montgomery Lake Creek,65.05,120.2,79.38,149.69,349.27,Single-ply,SBD,M,
Boys,67.13,18,Bryan Bridges,Huntsville,65.32,136.08,74.84,129.27,340.19,Single-ply,SBD,M,
Boys,67.13,19,Cameron Dawson,Cleveland Tarkington,61.19,113.4,77.11,124.74,315.25,Single-ply,SBD,M,
Boys,67.13,20,Seth Fortune,Galveston Ball,62.96,97.52,79.38,133.81,310.71,Single-ply,SBD,M,
Boys,67.13,21,Ross Hough,Boling,65.68,115.67,70.31,115.67,301.64,Single-ply,SBD,M,
Boys,67.13,DQ,Andrew King,Cleveland Tarkington,67.13,,,,,Single-ply,SBD,M,
Boys,67.13,DQ,Courville Chance,Galveston Ball,67.13,,,,,Single-ply,SBD,M,
Boys,67.13,DQ,Cash Davis,Huffman Hargrave,60.83,,,,,Single-ply,SBD,M,
Boys,67.13,DQ,Joseph Flores,Huffman Hargrave,65.32,,,,,Single-ply,SBD,M,
Boys,74.84,1,Zach Mills,Conroe Woodlands College Park,73.98,217.72,120.2,251.74,589.67,Single-ply,SBD,M,
Boys,74.84,2,Preston Pugh,Montgomery Lake Creek,73.48,208.65,127.01,226.8,562.45,Single-ply,SBD,M,
Boys,74.84,3,Julian Wetzel,Huffman Hargrave,73.62,199.58,138.35,208.65,546.58,Single-ply,SBD,M,
Boys,74.84,4,Deryk Villarreal,Huffman Hargrave,71.03,208.65,127.01,208.65,544.31,Single-ply,SBD,M,
Boys,74.84,5,Erin Esquivel,Conroe Caney Creek,70.4,197.31,127.01,201.85,526.17,Single-ply,SBD,M,
Boys,74.84,6,Christian Ream,Montgomery Lake Creek,71.35,195.04,111.13,217.72,523.9,Single-ply,SBD,M,
Boys,74.84,7,Bret Peterson,Conroe The Woodlands,73.03,197.31,111.13,181.44,489.88,Single-ply,SBD,M,
Boys,74.84,8,Michael Carter,Magnolia,74.16,188.24,102.06,165.56,455.86,Single-ply,SBD,M,
Boys,74.84,9,Moises Soto,Magnolia,74.43,167.83,120.2,163.29,451.32,Single-ply,SBD,M,
Boys,74.84,10,Mauricio Kerguelen,Conroe The Woodlands,74.75,165.56,92.99,183.7,442.25,Single-ply,SBD,M,
Boys,74.84,11,Dylan Hadley,Cleveland Tarkington,72.76,161.03,95.25,183.7,439.98,Single-ply,SBD,M,
Boys,74.84,12,Christopher Tran,Fort Bend Kempner,71.12,163.29,83.91,190.51,437.72,Single-ply,SBD,M,
Boys,74.84,13,Gregory James,Galveston Ball,69.9,154.22,88.45,167.83,410.5,Single-ply,SBD,M,
Boys,74.84,14,William Gomez,Galveston Ball,71.3,136.08,106.59,165.56,408.23,Single-ply,SBD,M,
Boys,74.84,15,Ethan Minor,Huntsville,74.3,142.88,95.25,156.49,394.63,Single-ply,SBD,M,
Boys,74.84,16,Jarrett Ortega,Huntsville,70.9,142.88,97.52,147.42,387.82,Single-ply,SBD,M,
Boys,74.84,17,Keyvalen Johnson,Conroe Oak Ridge,67.45,138.35,88.45,158.76,385.55,Single-ply,SBD,M,
Boys,74.84,18,Dylan Errington,Cleveland Tarkington,70.53,117.93,83.91,156.49,358.34,Single-ply,SBD,M,
Boys,74.84,19,Geovon Evens,Galveston Ball,67.68,120.2,79.38,142.88,342.46,Single-ply,SBD,M,
Boys,74.84,20,Cameron Moore,Beaumont United,70.58,86.18,86.18,122.47,294.84,Single-ply,SBD,M,
Boys,74.84,21,Colin Broyden,Willis,69.17,77.11,74.84,108.86,260.82,Single-ply,SBD,M,
Boys,74.84,22,Cedric Madison,Beaumont United,68.81,102.06,47.63,102.06,251.74,Single-ply,SBD,M,
Boys,74.84,DQ,Ryan Hannah,Cleveland Tarkington,74.84,,,,,Single-ply,SBD,M,
Boys,74.84,DQ,Damien Paredes,Baytown Lee,71.08,117.93,,,,Single-ply,SBD,M,
Boys,74.84,DQ,Tyler Westbrook,Huffman Hargrave,74.57,,,,,Single-ply,SBD,M,
Boys,74.84,DQ,Daris Turner,Galveston Ball,68.95,,,,,Single-ply,SBD,M,
Boys,74.84,DQ,Nigel Ashton,Galveston Ball,72.57,,,,,Single-ply,SBD,M,
Boys,82.1,1,Perry Irchirl,Conroe Woodlands College Park,80.29,242.67,149.69,290.3,682.66,Single-ply,SBD,M,
Boys,82.1,2,Jace Halbaedier,Willis,81.42,226.8,122.47,219.99,569.26,Single-ply,SBD,M,
Boys,82.1,3,William Tang,Fort Bend Kempner,80.24,199.58,113.4,233.6,546.58,Single-ply,SBD,M,
Boys,82.1,4,Bradley Sanders,Cleveland Tarkington,78.74,226.8,133.81,183.7,544.31,Single-ply,SBD,M,
Boys,82.1,5,AJ Hirsekorn,Montgomery,81.01,206.38,124.74,208.65,539.77,Single-ply,SBD,M,
Boys,82.1,6,David Bush,Conroe Grand Oaks,78.47,192.78,133.81,185.97,512.56,Single-ply,SBD,M,
Boys,82.1,7,Wai Kaung,Galveston Ball,76.97,183.7,104.33,210.92,498.95,Single-ply,SBD,M,
Boys,82.1,8,Diego Trujillo,Conroe Oak Ridge,78.2,179.17,113.4,192.78,485.34,Single-ply,SBD,M,
Boys,82.1,9,Emory Velez,Conroe Grand Oaks,78.97,172.37,120.2,181.44,474,Single-ply,SBD,M,
Boys,82.1,10,Jayvon McCain,Huntsville,75.57,170.1,106.59,181.44,458.13,Single-ply,SBD,M,
Boys,82.1,11,Mattox Hirsekorn,Montgomery,78.34,197.31,97.52,161.03,455.86,Single-ply,SBD,M,
Boys,82.1,12,Giancarlo Vitela,Conroe Grand Oaks,80.29,151.95,106.59,183.7,442.25,Single-ply,SBD,M,
Boys,82.1,13,David Wilkins,Conroe Grand Oaks,77.7,142.88,97.52,183.7,424.11,Single-ply,SBD,M,
Boys,82.1,14,Gage Mongesku,Conroe Grand Oaks,79.38,145.15,102.06,167.83,415.04,Single-ply,SBD,M,
Boys,82.1,15,Lyric Lemons,Galveston Ball,78.7,138.35,104.33,170.1,412.77,Single-ply,SBD,M,
Boys,82.1,16,Garrett Ling,Cleveland Tarkington,81.42,156.49,90.72,142.88,390.09,Single-ply,SBD,M,
Boys,82.1,17,Francisco Otero,Conroe Grand Oaks,79.11,142.88,79.38,158.76,381.02,Single-ply,SBD,M,
Boys,82.1,18,Davis Rhame,Conroe The Woodlands,75.7,149.69,90.72,136.08,376.48,Single-ply,SBD,M,
Boys,82.1,19,Benny Shorter,New Waverly,75.3,138.35,70.31,124.74,333.39,Single-ply,SBD,M,
Boys,82.1,20,Jaron Jonas,Conroe Oak Ridge,77.88,183.7,120.2,18.14,322.05,Single-ply,SBD,M,
Boys,82.1,21,Titus Ellingser,Huffman Hargrave,75.8,104.33,92.99,117.93,315.25,Single-ply,SBD,M,
Boys,82.1,22,Jayten Farnsworth,Baytown Lee,76.25,102.06,61.23,142.88,306.17,Single-ply,SBD,M,
Boys,82.1,DQ,Parnell Lujan,Baytown Lee,79.88,,,,,Single-ply,SBD,M,
Boys,82.1,DQ,Nate King,Montgomery,80.69,188.24,,,,Single-ply,SBD,M,
Boys,89.81,1,Jack Basham,Montgomery Lake Creek,82.69,199.58,136.08,226.8,562.45,Single-ply,SBD,M,
Boys,89.81,2,Nathan Greak,Cleveland Tarkington,88.18,222.26,124.74,195.04,542.04,Single-ply,SBD,M,
Boys,89.81,3,Marshall Miller,Cleveland Tarkington,89.09,197.31,108.86,210.92,517.1,Single-ply,SBD,M,
Boys,89.81,4,Sebastian Patterson,Huntsville,83.05,208.65,122.47,181.44,512.56,Single-ply,SBD,M,
Boys,89.81,5,Ja'Kelvin Wise,Beaumont United,84.01,188.24,108.86,188.24,485.34,Single-ply,SBD,M,
Boys,89.81,6,Myles Terry,Conroe Oak Ridge,89.63,179.17,122.47,183.7,485.34,Single-ply,SBD,M,
Boys,89.81,7,Addison Pitts,Huffman Hargrave,88.27,174.63,106.59,181.44,462.66,Single-ply,SBD,M,
Boys,89.81,8,Nathan Thornberry,Conroe Grand Oaks,88,172.37,117.93,163.29,453.59,Single-ply,SBD,M,
Boys,89.81,9,Dylan Cuellar,Conroe Grand Oaks,87.77,156.49,102.06,170.1,428.64,Single-ply,SBD,M,
Boys,89.81,10,Jesse Arrington,Boling,82.87,161.03,106.59,145.15,412.77,Single-ply,SBD,M,
Boys,89.81,11,Shannon Richardson,Conroe,88.68,138.35,90.72,183.7,412.77,Single-ply,SBD,M,
Boys,89.81,12,Behnjamin Marin,Houston Aldine,89.54,124.74,88.45,170.1,383.29,Single-ply,SBD,M,
Boys,89.81,13,Jacob Englebretson,Conroe Grand Oaks,83.91,147.42,97.52,124.74,369.68,Single-ply,SBD,M,
Boys,89.81,14,Davis Schaub,New Waverly,85.96,138.35,77.11,142.88,358.34,Single-ply,SBD,M,
Boys,89.81,15,Jacerius Smither,New Waverly,88.13,124.74,74.84,138.35,337.93,Single-ply,SBD,M,
Boys,89.81,16,Kameron Gatson,Houston Eisenhower,84.32,90.72,90.72,145.15,326.59,Single-ply,SBD,M,
Boys,89.81,DQ,Spencer Brandon,Conroe Caney Creek,89.81,,,,,Single-ply,SBD,M,
Boys,89.81,DQ,Landon Parsley,Willis,89.81,,,,,Single-ply,SBD,M,
Boys,99.79,1,Colby Lord,Montgomery Lake Creek,96.75,254.01,183.7,240.4,678.12,Single-ply,SBD,M,
Boys,99.79,2,Logan Ecuyer,Conroe The Woodlands,98.97,249.48,158.76,260.82,669.05,Single-ply,SBD,M,
Boys,99.79,3,Payton Korolyk,Conroe Grand Oaks,97.75,242.67,156.49,249.48,648.64,Single-ply,SBD,M,
Boys,99.79,4,Micaiah Loop,Conroe,97.66,210.92,142.88,242.67,596.47,Single-ply,SBD,M,
Boys,99.79,5,Leslie Williams,Montgomery,95.93,215.46,145.15,222.26,582.87,Single-ply,SBD,M,
Boys,99.79,6,Gabriel Winters,Beaumont United,98.61,226.8,113.4,233.6,573.79,Single-ply,SBD,M,
Boys,99.79,7,Lazaro Escobar,Houston Aldine,97.2,226.8,113.4,226.8,566.99,Single-ply,SBD,M,
Boys,99.79,8,Keshon Mayers,Huntsville,93.58,240.4,131.54,190.51,562.45,Single-ply,SBD,M,
Boys,99.79,9,Hunter Delahoussaye,Montgomery,94.71,222.26,136.08,204.12,562.45,Single-ply,SBD,M,
Boys,99.79,10,Quaterian Riles,Huntsville,91.63,219.99,124.74,210.92,555.65,Single-ply,SBD,M,
Boys,99.79,11,Jordan Malvo,Beaumont United,93.89,226.8,117.93,208.65,553.38,Single-ply,SBD,M,
Boys,99.79,12,Zach Anderson,Montgomery,91.94,190.51,120.2,235.87,546.58,Single-ply,SBD,M,
Boys,99.79,13,Wyatt Kelley,Montgomery,96.25,199.58,138.35,197.31,535.24,Single-ply,SBD,M,
Boys,99.79,14,Jaylon Wyatt,Conroe Oak Ridge,96.62,179.17,138.35,204.12,521.63,Single-ply,SBD,M,
Boys,99.79,15,Coen Sallier,Beaumont United,95.12,190.51,113.4,215.46,519.36,Single-ply,SBD,M,
Boys,99.79,16,Grant Ferguson,Conroe Woodlands College Park,96.89,185.97,131.54,174.63,492.15,Single-ply,SBD,M,
Boys,99.79,17,Edwin Galarza,Galveston Ball,96.89,188.24,113.4,183.7,485.34,Single-ply,SBD,M,
Boys,99.79,18,Timothy Rodriguez,Pasadena,97.07,183.7,92.99,183.7,460.4,Single-ply,SBD,M,
Boys,99.79,19,Kevin Gutierrez,Fort Bend Kempner,98.25,174.63,83.91,199.58,458.13,Single-ply,SBD,M,
Boys,99.79,20,Jaylon Jones,Baytown Lee,98.75,181.44,92.99,181.44,455.86,Single-ply,SBD,M,
Boys,99.79,21,Greg Whippo,Magnolia,92.12,172.37,113.4,158.76,444.52,Single-ply,SBD,M,
Boys,99.79,22,Paden Pacetti,Montgomery Lake Creek,97.39,147.42,104.33,156.49,408.23,Single-ply,SBD,M,
Boys,99.79,23,Bryson Ivory,Conroe Grand Oaks,98.52,142.88,97.52,145.15,385.55,Single-ply,SBD,M,
Boys,109.77,1,James Goodman,Montgomery Lake Creek,108.86,254.01,172.37,240.4,666.78,Single-ply,SBD,M,
Boys,109.77,2,Ethan Wiggins,Montgomery Lake Creek,104.14,235.87,140.61,206.38,582.87,Single-ply,SBD,M,
Boys,109.77,3,Mason Feldman,Magnolia,108.73,210.92,136.08,208.65,555.65,Single-ply,SBD,M,
Boys,109.77,4,Quinton Harris,Houston Eisenhower,109.41,181.44,158.76,210.92,551.11,Single-ply,SBD,M,
Boys,109.77,5,Colin Simmons,Willis,105.05,204.12,124.74,208.65,537.51,Single-ply,SBD,M,
Boys,109.77,6,Joshua Flores,Conroe Caney Creek,100.38,226.8,124.74,183.7,535.24,Single-ply,SBD,M,
Boys,109.77,7,Mitchell Mustiful,Conroe Woodlands College Park,102.19,197.31,113.4,210.92,521.63,Single-ply,SBD,M,
Boys,109.77,8,Jacob Harris,Conroe Oak Ridge,108.32,192.78,113.4,197.31,503.49,Single-ply,SBD,M,
Boys,109.77,9,Eric Gilbert,Willis,107.77,206.38,111.13,183.7,501.22,Single-ply,SBD,M,
Boys,109.77,10,Gavin Edwards,Cleveland Tarkington,105.6,176.9,136.08,183.7,496.68,Single-ply,SBD,M,
Boys,109.77,11,Jerry Richards,Boling,107.86,195.04,111.13,190.51,496.68,Single-ply,SBD,M,
Boys,109.77,12,Quadmond Irchirl,Conroe Woodlands College Park,104.55,156.49,106.59,206.38,469.47,Single-ply,SBD,M,
Boys,109.77,13,Daniel Bonilla,Conroe Oak Ridge,109.09,188.24,108.86,172.37,469.47,Single-ply,SBD,M,
Boys,109.77,14,Johnathan Edmistion,Montgomery,109.41,174.63,120.2,167.83,462.66,Single-ply,SBD,M,
Boys,109.77,15,Josh Perez,Conroe Grand Oaks,106.87,183.7,90.72,181.44,455.86,Single-ply,SBD,M,
Boys,109.77,16,Sean Calkin,Willis,102.01,181.44,83.91,183.7,449.06,Single-ply,SBD,M,
Boys,109.77,17,Eduardo Rodriguez,Fort Bend Kempner,106.14,163.29,86.18,163.29,412.77,Single-ply,SBD,M,
Boys,109.77,18,Thomas Rose,Huntsville,107.68,149.69,95.25,151.95,396.89,Single-ply,SBD,M,
Boys,109.77,19,Mario Chavez,New Waverly,105.78,142.88,104.33,142.88,390.09,Single-ply,SBD,M,
Boys,109.77,20,Chadwick Whittington,Beaumont United,108.23,151.95,86.18,145.15,383.29,Single-ply,SBD,M,
Boys,109.77,21,Thomas Herrera,Baytown Lee,108.64,111.13,70.31,136.08,317.51,Single-ply,SBD,M,
Boys,109.77,DQ,Ethan Robbins,Conroe Caney Creek,109.77,,,,,Single-ply,SBD,M,
Boys,109.77,DQ,Cesar Robledo,Huntsville,102.69,136.08,,,,Single-ply,SBD,M,
Boys,109.77,DQ,Colton Jacobs,Huffman Hargrave,105.41,158.76,,,,Single-ply,SBD,M,
Boys,124.74,1,Gus Davis,Huffman Hargrave,121.56,306.17,181.44,276.69,764.3,Single-ply,SBD,M,
Boys,124.74,2,Jonathan Reyes,Conroe Caney Creek,119.79,294.84,147.42,249.48,691.73,Single-ply,SBD,M,
Boys,124.74,3,Caleb Williams,Conroe Woodlands College Park,123.74,272.16,181.44,233.6,687.19,Single-ply,SBD,M,
Boys,124.74,4,Austin Couhig,Cleveland Tarkington,121.7,238.14,138.35,231.33,607.81,Single-ply,SBD,M,
Boys,124.74,5,Carlos Ortiz,Magnolia,112.76,249.48,131.54,222.26,603.28,Single-ply,SBD,M,
Boys,124.74,6,Cameron Barr,Conroe Caney Creek,111.04,240.4,149.69,201.85,591.94,Single-ply,SBD,M,
Boys,124.74,7,Zane Nelson,Willis,115.08,226.8,136.08,210.92,573.79,Single-ply,SBD,M,
Boys,124.74,8,Trent Reyes,Boling,112.17,238.14,129.27,199.58,566.99,Single-ply,SBD,M,
Boys,124.74,9,Justin Snively,Montgomery,120.66,208.65,136.08,199.58,544.31,Single-ply,SBD,M,
Boys,124.74,10,Billy Haynes,Baytown Lee,116.94,201.85,124.74,199.58,526.17,Single-ply,SBD,M,
Boys,124.74,11,Zach Pitts,Huffman Hargrave,112.08,213.19,113.4,190.51,517.1,Single-ply,SBD,M,
Boys,124.74,12,Jose Cruz,Huntsville,113.35,219.99,117.93,176.9,514.83,Single-ply,SBD,M,
Boys,124.74,13,Jesus Hernandez #4,Conroe Oak Ridge,118.34,190.51,108.86,204.12,503.49,Single-ply,SBD,M,
Boys,124.74,14,Connor Fisher,Willis,112.26,185.97,117.93,197.31,501.22,Single-ply,SBD,M,
Boys,124.74,15,Jose Cuevas,Galveston Ball,115.58,192.78,108.86,188.24,489.88,Single-ply,SBD,M,
Boys,124.74,16,Devon Bouldin,Galveston Ball,110.68,188.24,106.59,192.78,487.61,Single-ply,SBD,M,
Boys,124.74,17,Chris Smith,Huntsville,114.35,181.44,111.13,170.1,462.66,Single-ply,SBD,M,
Boys,124.74,18,Cobe Williams,Conroe Woodlands College Park,112.49,176.9,120.2,161.03,458.13,Single-ply,SBD,M,
Boys,124.74,19,Chance Jackson,Conroe Woodlands College Park,117.73,170.1,124.74,154.22,449.06,Single-ply,SBD,M,
Boys,124.74,20,Camren DelRey,Conroe Oak Ridge,110.5,165.56,99.79,156.49,421.84,Single-ply,SBD,M,
Boys,124.74,21,Marque Johson,Conroe,120.07,165.56,81.65,151.95,399.16,Single-ply,SBD,M,
Boys,124.74,22,Dominic Medina,Baytown Lee,115.21,142.88,90.72,136.08,369.68,Single-ply,SBD,M,
Boys,124.74+,1,Cedric Harris,Magnolia,138.62,265.35,161.03,242.67,669.05,Single-ply,SBD,M,
Boys,124.74+,2,Jordan Wilson,Conroe Grand Oaks,145.15,260.82,154.22,226.8,641.83,Single-ply,SBD,M,
Boys,124.74+,3,Kade Bond,Magnolia,138.71,240.4,170.1,224.53,635.03,Single-ply,SBD,M,
Boys,124.74+,4,Rashaad Wynn,Willis,141.48,288.03,138.35,204.12,630.49,Single-ply,SBD,M,
Boys,124.74+,5,Michael Flores,Conroe Caney Creek,165.11,272.16,154.22,204.12,630.49,Single-ply,SBD,M,
Boys,124.74+,6,Matthew Gaudern,Conroe Oak Ridge,151.55,238.14,124.74,222.26,585.13,Single-ply,SBD,M,
Boys,124.74+,7,Cross Panalez,Fort Bend Kempner,170.1,215.46,142.88,195.04,553.38,Single-ply,SBD,M,
Boys,124.74+,8,Alfredo Nieto,Baytown Lee,136.98,210.92,120.2,219.99,551.11,Single-ply,SBD,M,
Boys,124.74+,9,Omar Nieto,Baytown Lee,139.53,210.92,120.2,210.92,542.04,Single-ply,SBD,M,
Boys,124.74+,10,Zach Rogers,Willis,129.09,204.12,113.4,197.31,514.83,Single-ply,SBD,M,
Boys,124.74+,11,Jumond Cole,Beaumont United,145.01,188.24,104.33,204.12,496.68,Single-ply,SBD,M,
Boys,124.74+,12,Troy Garrett,Huntsville,135.08,181.44,120.2,151.95,453.59,Single-ply,SBD,M,
Boys,124.74+,13,Le To,Willis,137.48,183.7,113.4,156.49,453.59,Single-ply,SBD,M,
Boys,124.74+,14,Neyo Oliphant,New Waverly,140.7,142.88,90.72,136.08,369.68,Single-ply,SBD,M,
Boys,124.74+,DQ,Micah Hare,Cleveland Tarkington,125.19,,,,,Single-ply,SBD,M,
