Name,Sex,BirthDate,Age,Tested,Event,Division,Equipment,BodyweightKg,WeightClassKg,Squat1Kg,Squat2Kg,Squat3Kg,Best3SquatKg,Bench1Kg,Bench2Kg,Bench3Kg,Bench4Kg,Best3BenchKg,Deadlift1Kg,Deadlift2Kg,Deadlift3Kg,Best3DeadliftKg,TotalKg,Place
Adam Harper,M,1983-06-04,22,Yes,B,M_JEM_AAPF,Multi-ply,118,125,,,,,160,167.5,-182.5,,167.5,,,,,167.5,1
Kenneth Millrany,M,1962-01-22,,Yes,B,M_MEM_1_AAPF,Multi-ply,106.1,110,,,,,285,302.5,-320.5,,302.5,,,,,302.5,1
Tom Womack,M,1961-02-01,45,Yes,B,M_MEM_2_AAPF,Multi-ply,98.2,100,,,,,150,160,-172.5,,160,,,,,160,1
Mike Harden,M,1953-12-08,52,Yes,B,M_MEM_3_AAPF,Multi-ply,122.8,125,,,,,182.5,190,-237.5,,190,,,,,190,1
Leonard McCormick,M,1946-09-23,59,Yes,B,M_MEM_4_AAPF,Multi-ply,82,82.5,,,,,85,90,-95,,90,,,,,90,1
Mickey Glasco,M,1944-04-01,61,Yes,B,M_MEM_5_AAPF,Multi-ply,99.1,100,,,,,-147.5,-147.5,-182.5,,,,,,,,DQ
Richard Champion II,M,,28,Yes,B,M_NEM_AAPF,Multi-ply,87.5,90,,,,,197.5,205,-227.5,,205,,,,,205,1
Bench Bubba Mcconnell,M,1971-03-07,,Yes,B,M_OEM_AAPF,Multi-ply,157,140+,,,,,-287.5,-287.5,-287.5,,,,,,,,DQ
Forrest Klein,M,1977-05-23,28,Yes,B,M_OEM_AAPF,Multi-ply,73.4,75,,,,,125,130,-135,,130,,,,,130,1
Don Millrany,M,1979-03-24,26,Yes,B,M_OEM_AAPF,Multi-ply,87.5,90,,,,,152.5,165,-182.5,,165,,,,,165,1
Richard Champion II,M,,28,Yes,B,M_OEM_AAPF,Multi-ply,87.5,90,,,,,197.5,205,-227.5,,205,,,,,205,2
Kenneth Millrany,M,1962-01-22,,Yes,B,M_OEM_AAPF,Multi-ply,106.1,110,,,,,285,302.5,-320,,302.5,,,,,302.5,1
Bill Parsley,M,1966-05-22,39,Yes,B,M_SEM_AAPF,Multi-ply,80.9,82.5,,,,,147.5,155,160,,160,,,,,160,1
Brant Bishop,M,1970-01-14,36,Yes,B,M_SEM_AAPF,Multi-ply,99.5,100,,,,,240,-252.5,-252.5,,240,,,,,240,1
Joey Ladnier,M,1992-04-08,13,Yes,B,M_TEM_1_AAPF,Multi-ply,73.6,,,,,,72.5,87.5,92.5,,92.5,,,,,92.5,1
David Perry,M,,17,Yes,B,M_TEM_2_AAPF,Multi-ply,101.6,110,,,,,105,-112.5,-117.5,,105,,,,,105,1
Matt Christie,M,1982-04-20,23,Yes,SBD,M_JEM_AAPF,Multi-ply,90,90,-295,300,-320,300,187.5,195,202.5,,202.5,260,277.5,282.5,282.5,785,1
Dan Davidson,M,1956-07-19,49,Yes,SBD,M_MEM_2_AAPF,Multi-ply,122.7,125,272.5,295,-340,295,-192.5,-192.5,,,,,,,,,DQ
Mark Lichtenberger,M,1957-02-10,49,Yes,SBD,M_MEM_2_AAPF,Multi-ply,88.8,90,250,272.5,290,290,-212.5,212.5,227.5,,227.5,240,-250,,240,757.5,1
Ronald Proctor,M,1954-07-12,51,Yes,SBD,M_MEM_3_AAPF,Multi-ply,100,100,245,262.5,-272.5,262.5,-172.5,172.5,-192.5,,172.5,220,,,220,655,1
Ted Butler,M,1947-01-26,59,Yes,SBD,M_MEM_4_AAPF,Multi-ply,98.2,100,215,227.5,237.5,237.5,165,170,-175,,170,232.5,250,-272.5,250,657.5,1
William Hamilton,M,1978-07-13,27,Yes,SBD,M_NEM_AAPF,Multi-ply,106.6,110,165,192.5,-237.5,192.5,165,-170,,,165,227.5,255,-265,255,612.5,2
Charles Graham,M,1974-10-04,,Yes,SBD,M_NEM_AAPF,Multi-ply,88.2,90,-237.5,237.5,-250,237.5,102.5,-145,145,,145,185,237.5,250,250,632.5,1
Tom Ryan,M,1974-05-09,31,Yes,SBD,M_NEM_AAPF,Multi-ply,102.6,110,-250,250,287.5,287.5,142.5,182.5,190,,190,185,227.5,-235,227.5,705,1
Don Millrany,M,1979-03-24,26,Yes,SBD,M_OEM_AAPF,Multi-ply,87.5,90,-215,-215,-225,,,,,,,,,,,,DQ
Kyle Kirby #2,M,1984-06-03,21,Yes,SBD,M_OEM_AAPF,Multi-ply,80.7,82.5,282.5,-300,,282.5,-122.5,122.5,-140,,122.5,-252.5,-252.5,-252.5,,,DQ
Jeff Finlayson,M,,34,Yes,SBD,M_OEM_AAPF,Multi-ply,82.3,82.5,210,237.5,240,240,135,145,-152.5,,145,210,230,-237.5,230,615,1
Chris Robinson #4,M,1975-05-29,30,Yes,SBD,M_OEM_AAPF,Multi-ply,136.6,140,320,-345,-352.5,320,175,-185,185,,185,252.5,272.5,-287.5,272.5,777.5,1
Jeff Ray,M,1966-08-03,39,Yes,SBD,M_OEM_AAPF,Multi-ply,97.7,100,250,272.5,-285,272.5,182.5,195,-205,,195,272.5,295,310,310,777.5,1
Ken Overbey,M,1966-08-27,39,Yes,SBD,M_OEM_AAPF,Multi-ply,136.2,140,330,350,-375,350,-227.5,237.5,-265,,237.5,260,275,-287.5,275,862.5,1
Bill Parsley,M,1966-05-22,39,Yes,SBD,M_SEM_AAPF,Multi-ply,80.9,82.5,-252.5,-252.5,-265,,,,,,,,,,,,DQ
Brant Bishop,M,1970-01-14,36,Yes,SBD,M_SEM_AAPF,Multi-ply,99.5,100,-295,-310,,,,,,,,,,,,,DQ
Jeff Ray,M,1966-08-03,39,Yes,SBD,M_SEM_AAPF,Multi-ply,97.7,100,250,272.5,-285,272.5,182.5,195,-205,,195,272.5,295,310,310,777.5,1
Ken Overbey,M,1966-08-27,39,Yes,SBD,M_SEM_AAPF,Multi-ply,136.2,140,330,350,-375,350,-227.5,237.5,-265,,237.5,260,275,-287.5,275,862.5,1
Darrell Hoard,M,1970-10-07,35,Yes,SBD,M_SEM_AAPF,Multi-ply,116.6,125,-315,315,327.5,327.5,205,277.5,-282.5,,277.5,237.5,265,-272.5,265,870,1
J. Cody Ward,M,1991-02-18,15,Yes,SBD,M_TEM_1_AAPF,Multi-ply,63.81,67.5,65,82.5,102.5,102.5,65,-72.5,72.5,,72.5,97.5,102.5,107.5,107.5,282.5,1
Joey Ladnier,M,1992-04-08,13,Yes,SBD,M_TEM_1_AAPF,Multi-ply,73.6,75,165,182.5,190,190,72.5,87.5,92.5,,92.5,165,182.5,-192.5,182.5,465,1
Brett Alexander,M,1989-06-30,16,Yes,SBD,M_TEM_2_AAPF,Multi-ply,122,125,-237.5,237.5,-272.5,237.5,125,-142.5,142.5,,142.5,192.5,212.5,-227.5,212.5,592.5,1
Kenneth Millrany,M,1962-01-22,,No,B,M_MEM_1_APF,Multi-ply,106.1,110,,,,,285,302.5,-320.5,,302.5,,,,,302.5,1
Vert Hartman,M,1945-03-09,61,No,B,M_MEM_5_APF,Multi-ply,116.3,125,,,,,160,172.5,-182.5,,172.5,,,,,172.5,1
Vince Breaux,M,1945-10-23,60,No,B,M_MEM_5_APF,Multi-ply,100.8,110,,,,,175,187.5,-192.5,,187.5,,,,,187.5,1
Ron Groce,M,1970-08-31,35,No,B,M_NEM_AAPF,Multi-ply,104.1,110,,,,,227.5,245,-260,,245,,,,,245,1
Bubba Mcconnell,M,1973-03-07,33,No,B,M_OEM_APF,Multi-ply,157,140+,,,,,-287.5,-287.5,-287.5,,,,,,,,DQ
Eric Downey,M,1978-06-29,27,No,B,M_OEM_APF,Multi-ply,98.4,100,,,,,-232.5,,,,,,,,,,DQ
Ryan Hicks,M,1977-12-13,28,No,B,M_OEM_APF,Multi-ply,87.8,90,,,,,-215,-215,-235,,,,,,,,DQ
Nickey Peppers,M,1972-02-29,34,No,B,M_OEM_APF,Multi-ply,109.7,110,,,,,220,-242.5,-242.5,,220,,,,,220,3
Brent Pickett,M,1972-01-23,34,No,B,M_OEM_APF,Multi-ply,120.9,125,,,,,-250,250,-255,,250,,,,,250,2
John Moxley,M,1971-04-03,34,No,B,M_OEM_APF,Multi-ply,110,110,,,,,270,-275,-275,,270,,,,,270,2
Kenneth Millrany,M,1962-01-22,,No,B,M_OEM_APF,Multi-ply,106.1,110,,,,,285,302.5,-320,,302.5,,,,,302.5,1
David Bowman,M,1983-06-10,22,No,B,M_OEM_APF,Multi-ply,123.4,125,,,,,-320,320,-327.5,,320,,,,,320,1
Ron Groce,M,1970-08-31,35,No,B,M_SEM_APF,Multi-ply,104.1,110,,,,,227.5,245,-260,,245,,,,,245,1
Joey Ladnier,M,1992-04-08,13,No,B,M_TEM_1_APF,Multi-ply,73.6,,,,,,72.5,87.5,92.5,,92.5,,,,,92.5,1
Allan Massie,M,1963-08-19,42,No,SBD,M_MEM_1_APF,Multi-ply,90,90,-255,255,-265,255,137.5,-150,-150,,137.5,195,210,-227.5,210,602.5,2
James Flowers,M,1965-08-03,40,No,SBD,M_MEM_1_APF,Multi-ply,107.4,110,227.5,245,250,250,182.5,-205,-205,,182.5,182.5,205,-210,205,637.5,1
Brent Tracey,M,1964-12-30,41,No,SBD,M_MEM_1_APF,Multi-ply,89.1,90,330,347.5,365,365,217.5,227.5,237.5,,237.5,272.5,287.5,-297.5,287.5,890,1
Bryan White,M,1959-08-01,46,No,SBD,M_MEM_2_APF,Multi-ply,80.2,82.5,-205,222.5,230,230,140,152.5,-157.5,,152.5,165,185,195,195,577.5,1
Terry Buckley,M,1953-07-27,,No,SBD,M_MEM_3_APF,Multi-ply,89.3,90,-300,300,-320,300,-185,185,-205,,185,237.5,245,-260,245,730,1
Michael Shealy,M,1952-01-10,54,No,SBD,M_MEM_3_APF,Multi-ply,98,100,195,-210,212.5,212.5,142.5,150,-152.5,,150,150,165,170,170,532.5,1
Vince Breaux,M,1945-10-23,60,No,SBD,M_MEM_5_APF,Multi-ply,100.8,110,-137.5,137.5,150,150,175,187.5,-192.5,,187.5,212.5,227.5,240,240,577.5,1
Ron Groce,M,1970-08-31,35,No,SBD,M_NEM_APF,Multi-ply,104.1,110,-312.5,-312.5,312.5,312.5,227.5,-245,-260,,227.5,250,265,272.5,272.5,812.5,1
Ryan Tinney,M,1978-01-13,28,No,SBD,M_OEM_APF,Multi-ply,108.2,110,-397.5,-397.5,-397.5,,,,,,,,,,,,DQ
Greg Theriot,M,1984-01-30,22,No,SBD,M_OEM_APF,Multi-ply,124.5,125,-427.5,-427.5,-427.5,,,,,,,,,,,,DQ
Alexander Guice,M,1973-12-14,32,No,SBD,M_OEM_APF,Multi-ply,99.8,100,265,-307.5,,265,-197.5,-197.5,,,,,,,,,DQ
Kyle Kirby #2,M,1984-06-03,21,No,SBD,M_OEM_APF,Multi-ply,80.7,82.5,282.5,-300,,282.5,-122.5,122.5,-140,,122.5,-252.5,-252.5,-252.5,,,DQ
Shane Mckinney,M,1974-03-02,32,No,SBD,M_OEM_APF,Multi-ply,109,110,290,300,-317.5,300,222.5,237.5,-262.5,,237.5,-295,,,,,DQ
Allan Massie,M,1963-08-19,42,No,SBD,M_OEM_APF,Multi-ply,90,90,-255,255,-265,255,137.5,-150,-150,,137.5,195,210,-227.5,210,602.5,1
Keith Taylor,M,1977-03-03,,No,SBD,M_OEM_APF,Multi-ply,99.1,100,242.5,262.5,-285,262.5,-147.5,152.5,182.5,,182.5,195,215,-230.5,215,660,3
Jeff Ray,M,1966-08-03,39,No,SBD,M_OEM_APF,Multi-ply,97.7,100,250,272.5,-285,272.5,182.5,195,-205,,195,272.5,295,310,310,777.5,2
Kevin Champion,M,1974-02-02,32,No,SBD,M_OEM_APF,Multi-ply,97.1,100,305,327.5,340,340,175,185,-195,,185,250,262.5,272.5,272.5,797.5,1
Greg Chathan,M,1981-12-15,24,No,SBD,M_OEM_APF,Multi-ply,124.1,125,322.5,350,-362.5,350,212.5,-230,230,,230,250,260,-267.5,260,840,1
Jason Mccracken,M,1976-08-31,29,No,SBD,M_OEM_APF,Multi-ply,99.5,100,310,332.5,362.5,362.5,145,247.5,-272.5,,247.5,250,-272.5,-272.5,250,860,1
Mike Luckett,M,1981-12-04,24,No,SBD,M_OEM_APF,Multi-ply,90,90,340,-382.5,-397.5,340,142.5,255,-272.5,,255,272.5,292.5,-312.5,292.5,887.5,1
Steven Radford,M,1980-01-23,26,No,SBD,M_OEM_APF,Multi-ply,106.7,110,347.5,-362.5,-362.5,347.5,145,245,272.5,,272.5,272.5,-297.5,,272.5,892.5,1
Curtis Dennis,M,1980-03-12,26,No,SBD,M_OEM_APF,Multi-ply,127.6,140,320,340,-365,340,247.5,-260,-260,,247.5,295,322.5,,322.5,910,1
Brian Pennington,M,1973-01-07,33,No,SBD,M_SEM_APF,Multi-ply,88.2,90,-300,-320,-320,,,,,,,,,,,,DQ
Scott Johnson,M,1968-08-22,37,No,SBD,M_SEM_APF,Multi-ply,100,100,265,-280,-280,265,142.5,160,-170,,160,197.5,212.5,-227.5,212.5,637.5,2
Clay Livingston,M,1972-09-07,33,No,SBD,M_SEM_APF,Multi-ply,119.1,125,247.5,265,272.5,272.5,182.5,197.5,205,,205,215,230,250,250,727.5,2
Jeff Ray,M,1966-08-03,39,No,SBD,M_SEM_APF,Multi-ply,97.7,100,250,272.5,-285,272.5,182.5,195,-205,,195,272.5,295,310,310,777.5,2
Ron Groce,M,1970-08-31,35,No,SBD,M_SEM_APF,Multi-ply,104.1,110,-312.5,-312.5,312.5,312.5,227.5,-245,-260,,227.5,250,265,272.5,272.5,812.5,1
Mike Beatty,M,1972-12-30,,No,SBD,M_SEM_APF,Multi-ply,156,140+,-295,295,320,320,215,230,240,,240,292.5,307.5,,307.5,867.5,1
Darrell Hoard,M,1970-10-07,35,No,SBD,M_SEM_APF,Multi-ply,116.6,125,-315,315,327.5,327.5,205,277.5,-282.5,,277.5,237.5,265,-272.5,265,870,1
Joey Ladnier,M,1992-04-08,13,No,SBD,M_TEM_1_APF,Multi-ply,73.6,75,165,182.5,190,190,72.5,87.5,92.5,,92.5,165,182.5,-192.5,182.5,465,1
Robert Blunschi,M,1986-04-04,,No,SBD,M_TEM_3_APF,Multi-ply,67.3,67.5,195,-210,-212.5,195,115,-130,-130,,115,185,200,-210,200,510,1
Sam Byrd,M,,24,No,B,M_GEM_APF,Multi-ply,100.5,110,,,,,-252.5,-272.5,-272.5,,,,,,,,DQ
Kara Bohigian-Smith,F,1975-04-12,30,No,B,F_GEM_APF,Multi-ply,70,75,,,,,185,197.5,202.5,205,202.5,,,,,202.5,G
Dan Davidson,M,,49,No,D,M_GEM_APF,Multi-ply,122.7,125,,,,,,,,,,317.5,340,,340,340,G
Greg Theriot,M,,,No,D,M_GEM_APF,Multi-ply,,,,,,,,,,,,337.5,350,-357.5,350,350,G
Garry Frank #1,M,1964-12-20,41,No,B,M_GEM_APF,Multi-ply,162.2,140+,,,,,355,377.5,385,,385,,,,,385,G
Joe Ladnier,M,,42,No,B,M_GEM_APF,Multi-ply,122.2,125,,,,,-335,-370,-370,,,,,,,,DQ
Michael Green,M,,35,No,B,M_GR_APF,Raw,100.9,110,,,,,230,237.5,-242.5,,237.5,,,,,237.5,G
