Division,WeightClassKg,Place,Name,Team,BodyweightKg,Best3SquatKg,Best3BenchKg,Best3DeadliftKg,TotalKg,Equipment,Event,Sex,BirthDate
Boys,51.71,1,Ashtin Carlock,Conroe Grand Oaks,51.26,104.33,83.91,127.01,315.25,Single-ply,SBD,M,
Boys,51.71,2,Caden Eddleman,Magnolia,51.21,113.4,47.63,122.47,283.5,Single-ply,SBD,M,
Boys,51.71,DQ,Owen Sims,Magnolia,45.22,,45.36,102.06,,Single-ply,SBD,M,
Boys,55.79,1,Darian Chambers,Magnolia,55.38,115.67,61.23,129.27,306.17,Single-ply,SBD,M,
Boys,59.87,1,Boone Beyer,Magnolia,58.29,124.74,74.84,124.74,324.32,Single-ply,SBD,M,
Boys,59.87,2,Jerry Contreras,Conroe The Woodlands,58.06,92.99,45.36,115.67,254.01,Single-ply,SBD,M,
Boys,59.87,10,Carlos Perez #7,Conroe Grand Oaks,59.87,111.13,74.84,138.35,324.32,Single-ply,SBD,M,
Boys,67.13,1,Daniel Gil,Conroe The Woodlands,65.45,181.44,111.13,199.58,492.15,Single-ply,SBD,M,
Boys,67.13,2,Aiden Peterson,Conroe The Woodlands,65.32,161.03,95.25,197.31,453.59,Single-ply,SBD,M,
Boys,67.13,3,Rodrigo Guerra,Conroe Oak Ridge,65.91,151.95,97.52,204.12,453.59,Single-ply,SBD,M,
Boys,67.13,4,Andrew Veres,Conroe Woodlands College Park,65.5,154.22,95.25,158.76,408.23,Single-ply,SBD,M,
Boys,67.13,5,Keyvalen Johnson,Conroe Oak Ridge,66,147.42,88.45,158.76,394.63,Single-ply,SBD,M,
Boys,67.13,6,Gustavo Herrera,Conroe The Woodlands,67.13,142.88,88.45,161.03,392.36,Single-ply,SBD,M,
Boys,67.13,7,Drew Griffin,Conroe Grand Oaks,64.86,151.95,79.38,142.88,374.21,Single-ply,SBD,M,
Boys,67.13,8,Rogelio Barrera,Conroe,62.6,136.08,79.38,147.42,362.87,Single-ply,SBD,M,
Boys,67.13,9,Chris Vanderbergh,Conroe Grand Oaks,60.87,131.54,79.38,147.42,358.34,Single-ply,SBD,M,
Boys,67.13,DQ,Daniel Vazquez,Conroe The Woodlands,63.5,102.06,72.57,,,Single-ply,SBD,M,
Boys,74.84,1,Sean Strakos,Magnolia,72.57,174.63,102.06,163.29,439.98,Single-ply,SBD,M,
Boys,74.84,2,Dylon DeAngelo,Conroe Woodlands College Park,69.26,142.88,104.33,158.76,405.97,Single-ply,SBD,M,
Boys,74.84,3,Evan Azner,Magnolia,74.12,158.76,79.38,156.49,394.63,Single-ply,SBD,M,
Boys,74.84,4,Braden Bradley,Conroe Grand Oaks,70.53,136.08,61.23,127.01,324.32,Single-ply,SBD,M,
Boys,74.84,5,Alex Conjelko,Conroe The Woodlands,68.04,108.86,52.16,106.59,267.62,Single-ply,SBD,M,
Boys,74.84,DQ,William Yeager,Conroe Grand Oaks,67.72,124.74,,,,Single-ply,SBD,M,
Boys,82.1,1,Ethan McEntire,Magnolia,78.83,201.85,131.54,195.04,528.44,Single-ply,SBD,M,
Boys,82.1,2,David Bush,Conroe Grand Oaks,79.24,199.58,136.08,190.51,526.17,Single-ply,SBD,M,
Boys,82.1,3,Diego Trujillo,Conroe Oak Ridge,78.24,188.24,108.86,192.78,489.88,Single-ply,SBD,M,
Boys,82.1,4,Jaron Jonas,Conroe Oak Ridge,77.43,183.7,120.2,183.7,487.61,Single-ply,SBD,M,
Boys,82.1,5,Andrew Davidson,Conroe Woodlands College Park,76.66,176.9,99.79,188.24,464.93,Single-ply,SBD,M,
Boys,82.1,6,Carlos Rodriguez,Magnolia,76.38,181.44,90.72,165.56,437.72,Single-ply,SBD,M,
Boys,82.1,7,Andrew Larkworthy,Conroe The Woodlands,79.38,106.59,54.43,117.93,278.96,Single-ply,SBD,M,
Boys,89.81,1,Harold Knight,Conroe The Woodlands,85.73,188.24,113.4,217.72,519.36,Single-ply,SBD,M,
Boys,89.81,2,Terry Myles,Conroe Oak Ridge,89.09,183.7,117.93,185.97,487.61,Single-ply,SBD,M,
Boys,89.81,3,Shannon Richardson,Conroe,88.86,165.56,102.06,204.12,471.74,Single-ply,SBD,M,
Boys,89.81,4,Eliel Sandoval,Magnolia,87.63,188.24,97.52,172.37,458.13,Single-ply,SBD,M,
Boys,89.81,5,Alejandro Morrell,Magnolia,87.45,181.44,83.91,176.9,442.25,Single-ply,SBD,M,
Boys,89.81,6,Jake Marriott,Conroe Woodlands College Park,87.63,136.08,92.99,156.49,385.55,Single-ply,SBD,M,
Boys,89.81,DQ,Ben DelRey,Conroe Oak Ridge,88.22,165.56,,185.97,,Single-ply,SBD,M,
Boys,99.79,1,Kc Ossai,Conroe Oak Ridge,99.79,219.99,136.08,226.8,582.87,Single-ply,SBD,M,
Boys,99.79,2,Adrien Pacheco,Conroe Grand Oaks,92.99,192.78,111.13,206.38,510.29,Single-ply,SBD,M,
Boys,99.79,3,Kyler Ramsey,Conroe Oak Ridge,97.7,192.78,97.52,190.51,480.81,Single-ply,SBD,M,
Boys,99.79,4,Bryson Ivory,Conroe Grand Oaks,98.38,158.76,97.52,170.1,426.38,Single-ply,SBD,M,
Boys,99.79,5,Relay Adams,Conroe Grand Oaks,91.31,156.49,92.99,154.22,403.7,Single-ply,SBD,M,
Boys,99.79,6,Kevin Garza,Conroe Woodlands College Park,91.4,129.27,90.72,127.01,347,Single-ply,SBD,M,
Boys,99.79,7,Kaden Hearn,Conroe The Woodlands,95.93,102.06,58.97,117.93,278.96,Single-ply,SBD,M,
Boys,99.79,DQ,Jaylon Wyatt,Conroe Oak Ridge,95.03,195.04,,215.46,,Single-ply,SBD,M,
Boys,109.77,1,Jacob Harris,Conroe Oak Ridge,105.55,201.85,113.4,222.26,537.51,Single-ply,SBD,M,
Boys,109.77,2,Daniel Bonilla,Conroe Oak Ridge,109.18,201.85,108.86,197.31,508.02,Single-ply,SBD,M,
Boys,109.77,3,Cam Markle,Conroe The Woodlands,104.78,204.12,138.35,151.95,494.42,Single-ply,SBD,M,
Boys,109.77,4,Josh Perez,Conroe Grand Oaks,106.28,181.44,90.72,195.04,467.2,Single-ply,SBD,M,
Boys,109.77,6,Mizlowe Pena,Conroe Oak Ridge,103.24,170.1,104.33,142.88,417.3,Single-ply,SBD,M,
Boys,109.77,7,Alex Fisher,Conroe Woodlands College Park,101.02,115.67,90.72,149.69,356.07,Single-ply,SBD,M,
Boys,109.77,8,Carson Berg,Conroe Woodlands College Park,109.45,120.2,83.91,138.35,342.46,Single-ply,SBD,M,
Boys,109.77,DQ,Jacob Otano,Conroe The Woodlands,107.27,158.76,,167.83,,Single-ply,SBD,M,
Boys,109.77,DQ,Jacob Solis,Conroe Oak Ridge,108.5,156.49,,170.1,,Single-ply,SBD,M,
Boys,124.74,1,Jesus Hernandez #4,Conroe Oak Ridge,118.39,204.12,124.74,208.65,537.51,Single-ply,SBD,M,
Boys,124.74,2,Marque Johnson,Conroe,119.93,179.17,90.72,179.17,449.06,Single-ply,SBD,M,
Boys,124.74,5,Cameron DelRey,Conroe Oak Ridge,110,174.63,102.06,181.44,458.13,Single-ply,SBD,M,
Boys,124.74,DQ,Patrick Noravong,Conroe,116.57,251.74,,,,Single-ply,SBD,M,
Boys,124.74,DQ,Aidan Garris,Conroe Oak Ridge,114.94,165.56,,167.83,,Single-ply,SBD,M,
Boys,124.74+,1,Jordan Wilson,Conroe Grand Oaks,143.65,274.42,154.22,238.14,666.78,Single-ply,SBD,M,
Boys,124.74+,DQ,Matthew Gaudern,Conroe Oak Ridge,149.14,258.55,,,,Single-ply,SBD,M,
Boys,,NS,Chris Vandenbergh,Conroe Grand Oaks,,,,,,Single-ply,SBD,M,
Boys,,NS,Mitchell Mustiful,Conroe Woodlands College Park,,,,,,Single-ply,SBD,M,
Boys,,NS,Terique Anderson,Conroe Woodlands College Park,,,,,,Single-ply,SBD,M,
Boys,,NS,Mac Postel,Magnolia,,,,,,Single-ply,SBD,M,
Boys,,NS,Aiden Preuss,Conroe The Woodlands,,,,,,Single-ply,SBD,M,
